{"status":"success","code":200,"message":"Data retrieved successfully","pagination":{"page":1,"per_page":4,"total":40,"total_pages":10},"data":[{"id":670488,"name":"hUpigUILcfoLJTSACr2V","email":"kArnWgxw@example.com","active":false,"score":60.37,"tags":["YTH9x","I0M2K","Scosf"],"metadata":{"created":"2024-01-15T10:30:00Z","updated":"2024-12-25T15:45:00Z","version":4}},{"id":908574,"name":"grOwxnq7OMkTkx OJR1W","email":"octqn73t@example.com","active":false,"score":39.56,"tags":["5CqpJ","qK4zn"," Gfcg"],"metadata":{"created":"2024-01-15T10:30:00Z","updated":"2024-12-25T15:45:00Z","version":3}},{"id":830556,"name":"QLyLDpI7Qh3VWvsjaTT9","email":"WFgN1Fmx@example.com","active":true,"score":53.94,"tags":["XHaub","630td","37fEe"],"metadata":{"created":"2024-01-15T10:30:00Z","updated":"2024-12-25T15:45:00Z","version":9}}],"meta":{"request_id":"dTYgmHilD3eY1gPIafVozE24kay6XrRU","timestamp":"2024-12-25T12:00:00Z","processing_time_ms":411}}