{"status":"success","code":200,"message":"Data retrieved successfully","pagination":{"page":1,"per_page":40,"total":400,"total_pages":10},"data":[{"id":582766,"name":"PElndUdtdE5HdF1ee2z7","email":"JKcfPJtq@example.com","active":false,"score":23.87,"tags":["yQstV","eC  e","nq633"],"metadata":{"created":"2024-01-15T10:30:00Z","updated":"2024-12-25T15:45:00Z","version":6}},{"id":298831,"name":"j0SM PaZsP7ihgIrMTmN","email":"qE51fAra@example.com","active":true,"score":63.71,"tags":["qUIAa","e34I0","Kjit4"],"metadata":{"created":"2024-01-15T10:30:00Z","updated":"2024-12-25T15:45:00Z","version":1}},{"id":942591,"name":"wQQwJ39V6okYlzl6XzQU","email":"pkSycDm5@example.com","active":false,"score":30.52,"tags":["Yobmu","28rOz","9H7h9"],"metadata":{"created":"2024-01-15T10:30:00Z","updated":"2024-12-25T15:45:00Z","version":3}},{"id":608793,"name":"8qgBTtMGyKqSa6HTUQwe","email":"Put1Tstz@example.com","active":false,"score":69.72,"tags":["ImPxV","kJz0t","nXMuB"],"metadata":{"created":"2024-01-15T10:30:00Z","updated":"2024-12-25T15:45:00Z","version":4}},{"id":536005,"name":"D4YkfGNvZVQombpD1eAN","email":"mRFpPaVW@example.com","active":true,"score":77.84,"tags":["nYRDJ","5hiDH","JtVBZ"],"metadata":{"created":"2024-01-15T10:30:00Z","updated":"2024-12-25T15:45:00Z","version":9}},{"id":447471,"name":"0I4UDqpOWGNresruIioR","email":"SezIAnA5@example.com","active":true,"score":85.67,"tags":["WxawV","18AVI","MnnBb"],"metadata":{"created":"2024-01-15T10:30:00Z","updated":"2024-12-25T15:45:00Z","version":6}},{"id":701365,"name":"QzkDiNbyJbOiDdxnuVxV","email":"0pfbH wO@example.com","active":true,"score":75.42,"tags":["7mbjh","QJnSW","kMVhZ"],"metadata":{"created":"2024-01-15T10:30:00Z","updated":"2024-12-25T15:45:00Z","version":5}},{"id":113350,"name":"K6K5x7mL0pRsRYYJcHPe","email":"OaAEBw4C@example.com","active":true,"score":43.55,"tags":["U8rYH","EBUq1","0f3pD"],"metadata":{"created":"2024-01-15T10:30:00Z","updated":"2024-12-25T15:45:00Z","version":10}},{"id":700647,"name":"xb1lnYv3Sra7fTEVROEX","email":"fnRtKDHA@example.com","active":false,"score":35.18,"tags":["CtoTt","U7RmU","rLVL9"],"metadata":{"created":"2024-01-15T10:30:00Z","updated":"2024-12-25T15:45:00Z","version":4}},{"id":310637,"name":"olaHr9IRh2E2KDBld7EZ","email":"zeNdjJt @example.com","active":true,"score":55.81,"tags":["ALMWx","5sLBJ","d8gWN"],"metadata":{"created":"2024-01-15T10:30:00Z","updated":"2024-12-25T15:45:00Z","version":5}},{"id":692510,"name":"fpIjzRDcsr2eoqXLYmho","email":"jqidXLZ6@example.com","active":false,"score":12.44,"tags":["RS7FF","fcBup","f80K7"],"metadata":{"created":"2024-01-15T10:30:00Z","updated":"2024-12-25T15:45:00Z","version":5}},{"id":604239,"name":"cVDP5lKNEfvuQ2uRs7ZI","email":"Ctu9zG P@example.com","active":false,"score":41.32,"tags":["lwVNV","mI6BR","h9Mpj"],"metadata":{"created":"2024-01-15T10:30:00Z","updated":"2024-12-25T15:45:00Z","version":9}},{"id":14339,"name":"If 5Dh0FTGr09pIy6G32","email":"rXA6FZrs@example.com","active":false,"score":86.53,"tags":["CEuWx","629py","1zuD5"],"metadata":{"created":"2024-01-15T10:30:00Z","updated":"2024-12-25T15:45:00Z","version":7}},{"id":404833,"name":" XPj8h8ug1g5aj29eXqN","email":"zfuQH8N3@example.com","active":false,"score":87.24,"tags":["ceN6 ","VBgN2","BR4cY"],"metadata":{"created":"2024-01-15T10:30:00Z","updated":"2024-12-25T15:45:00Z","version":5}},{"id":375877,"name":"xjHJXke2Np5jDqqaY4Qj","email":"BvLOAp1m@example.com","active":false,"score":85.33,"tags":["gywsS","b0ya2","X95U0"],"metadata":{"created":"2024-01-15T10:30:00Z","updated":"2024-12-25T15:45:00Z","version":5}},{"id":813424,"name":"YMwONQTP0N4OtBKUfsVl","email":"iH9H50qZ@example.com","active":false,"score":96.74,"tags":["s2YDe","VoQQz","1Jfyq"],"metadata":{"created":"2024-01-15T10:30:00Z","updated":"2024-12-25T15:45:00Z","version":2}},{"id":476878,"name":"xVqyOxQDN7uMOODSOhcc","email":" hoHyx7R@example.com","active":false,"score":58.73,"tags":["T3P0M","7rRnC","ow9x4"],"metadata":{"created":"2024-01-15T10:30:00Z","updated":"2024-12-25T15:45:00Z","version":6}},{"id":63492,"name":"zlh1CPOLbXphJeWnn2uj","email":"4a2jipkP@example.com","active":true,"score":13.18,"tags":["wXLaq","hAheC","wLCnM"],"metadata":{"created":"2024-01-15T10:30:00Z","updated":"2024-12-25T15:45:00Z","version":9}},{"id":316283,"name":"C8dEzRE5efMerNIu HCM","email":"gS1PWTnC@example.com","active":true,"score":41.38,"tags":["0zTtt","q8RDf","fBUxi"],"metadata":{"created":"2024-01-15T10:30:00Z","updated":"2024-12-25T15:45:00Z","version":1}},{"id":614954,"name":"8JQz37A5dstgFjE1wJhr","email":"oBJWNQJM@example.com","active":false,"score":2.9,"tags":["rW6wl","jPeU9","fHxCj"],"metadata":{"created":"2024-01-15T10:30:00Z","updated":"2024-12-25T15:45:00Z","version":5}},{"id":756649,"name":"u7L3jVdfBAMAnGvgQLHt","email":"n dm7WWs@example.com","active":true,"score":0.77,"tags":["VlxSF","0Ye2c","b62KK"],"metadata":{"created":"2024-01-15T10:30:00Z","updated":"2024-12-25T15:45:00Z","version":7}},{"id":303579,"name":"hbuYM05f1pLHytvukGhG","email":"5wTZZojm@example.com","active":true,"score":76.02,"tags":["PlWFV","VC6JO","N2Nje"],"metadata":{"created":"2024-01-15T10:30:00Z","updated":"2024-12-25T15:45:00Z","version":8}},{"id":662056,"name":"trdFtCd0e21MFDIX4CZP","email":"uDjdg4vT@example.com","active":true,"score":3.91,"tags":["S HMw","5yWQd","NvuJy"],"metadata":{"created":"2024-01-15T10:30:00Z","updated":"2024-12-25T15:45:00Z","version":5}},{"id":758890,"name":"18LjfP5tPPiSfJOuiS7 ","email":"5fQGbt7v@example.com","active":false,"score":19.2,"tags":[" jsXF","IUHP3","MLjlR"],"metadata":{"created":"2024-01-15T10:30:00Z","updated":"2024-12-25T15:45:00Z","version":10}},{"id":848344,"name":"4TcwT9MVXop8X4mQJBWX","email":"FAkmM2dE@example.com","active":false,"score":55.45,"tags":["g11rW","r5jB7","nCwbd"],"metadata":{"created":"2024-01-15T10:30:00Z","updated":"2024-12-25T15:45:00Z","version":9}},{"id":392128,"name":"o xb60OXis0RiSCaeq0I","email":"THhssdAY@example.com","active":false,"score":6.28,"tags":["0FHNK","TsawJ","lQGw8"],"metadata":{"created":"2024-01-15T10:30:00Z","updated":"2024-12-25T15:45:00Z","version":9}},{"id":531972,"name":"XFb3cyxVwepPgKViwvO0","email":"R9EliT7c@example.com","active":true,"score":4.38,"tags":["mc6G ","IpVmw","X2uhx"],"metadata":{"created":"2024-01-15T10:30:00Z","updated":"2024-12-25T15:45:00Z","version":7}},{"id":779415,"name":"B8vlRxYqfAB lsgusCTk","email":"BCT5MBOX@example.com","active":true,"score":7.5,"tags":["OwYQ8","iMXce","XxyJM"],"metadata":{"created":"2024-01-15T10:30:00Z","updated":"2024-12-25T15:45:00Z","version":8}},{"id":994914,"name":"xBeixtr8blG5hWSnMR m","email":"iekS Z8 @example.com","active":false,"score":70.95,"tags":["IssjS","Skwo ","XoFwK"],"metadata":{"created":"2024-01-15T10:30:00Z","updated":"2024-12-25T15:45:00Z","version":8}},{"id":842701,"name":"9i3ezTEzzKhteDGi0ILW","email":"iF20Gtk6@example.com","active":true,"score":34.6,"tags":["741pO","IhtHF","k7jPT"],"metadata":{"created":"2024-01-15T10:30:00Z","updated":"2024-12-25T15:45:00Z","version":10}},{"id":354020,"name":"1JZbcOKPWAOFNs8EYRse","email":"dBEmMtTU@example.com","active":false,"score":97.54,"tags":["ixJuD","qpgsy","Mp2ku"],"metadata":{"created":"2024-01-15T10:30:00Z","updated":"2024-12-25T15:45:00Z","version":10}},{"id":756158,"name":"tWFGFtb7F8nwdF3PDH1B","email":"3TWxzJmI@example.com","active":true,"score":38.63,"tags":["CIZNM","igx J","xjLzc"],"metadata":{"created":"2024-01-15T10:30:00Z","updated":"2024-12-25T15:45:00Z","version":1}},{"id":143694,"name":"SYGj4i6uyM1LFGEJDbug","email":"At42NLqP@example.com","active":true,"score":72.14,"tags":["KkNN0","jQb7g","btjRz"],"metadata":{"created":"2024-01-15T10:30:00Z","updated":"2024-12-25T15:45:00Z","version":10}},{"id":965237,"name":"D1TSGJ Ex8CHIQ2QYqE8","email":"rs79WSRE@example.com","active":false,"score":34.88,"tags":["6YrhQ","x9Z8Y","ssSvB"],"metadata":{"created":"2024-01-15T10:30:00Z","updated":"2024-12-25T15:45:00Z","version":5}},{"id":783642,"name":"EmH6RiMKpQHOdATgWaI6","email":"z63Em8uO@example.com","active":true,"score":65.23,"tags":["oU1c6","A06c0","XlV2s"],"metadata":{"created":"2024-01-15T10:30:00Z","updated":"2024-12-25T15:45:00Z","version":1}},{"id":9718,"name":"sL6vCOH4iFrYuUOTavsQ","email":"mMOzAuzg@example.com","active":true,"score":47.75,"tags":["6ayCq","uKKqw","oQDkR"],"metadata":{"created":"2024-01-15T10:30:00Z","updated":"2024-12-25T15:45:00Z","version":5}},{"id":723822,"name":"h5sMnijVMAIDHPnpV3fC","email":"SeJdIFKj@example.com","active":false,"score":85.45,"tags":["BQTE4","CdiAJ","JQtbq"],"metadata":{"created":"2024-01-15T10:30:00Z","updated":"2024-12-25T15:45:00Z","version":1}},{"id":782033,"name":"neASId4 DsliOT8x4C5x","email":"f83i2h y@example.com","active":true,"score":72.79,"tags":["oabsQ","IHZpv","r7ThY"],"metadata":{"created":"2024-01-15T10:30:00Z","updated":"2024-12-25T15:45:00Z","version":7}},{"id":644794,"name":"W3amgcLSdUzon2dFsZUu","email":"LQutjPns@example.com","active":true,"score":55.67,"tags":["LUlQJ","cvOyH","RzslH"],"metadata":{"created":"2024-01-15T10:30:00Z","updated":"2024-12-25T15:45:00Z","version":4}},{"id":890599,"name":"o2jDdzAHyqueCxH0dxMc","email":"eYLQnn5t@example.com","active":true,"score":21.18,"tags":["lUVV5","RSypu","rDOtw"],"metadata":{"created":"2024-01-15T10:30:00Z","updated":"2024-12-25T15:45:00Z","version":8}}],"meta":{"request_id":"DYTVumtc2UbIKTsmoJpI7vWETUDUwiIl","timestamp":"2024-12-25T12:00:00Z","processing_time_ms":465}}